^C:\USERS\ADMIN\SOURCE\REPOS\SANACSHARP01\LAB22\X64\DEBUG\LAB22.OBJ
C:\USERS\ADMIN\SOURCE\REPOS\SANACSHARP01\LAB22\X64\DEBUG\LAB22.EXE
C:\USERS\ADMIN\SOURCE\REPOS\SANACSHARP01\LAB22\X64\DEBUG\LAB22.ILK
C:\USERS\ADMIN\SOURCE\REPOS\SANACSHARP01\LAB22\X64\DEBUG\LAB22.PDB
